…
# Import data (and fix one participant name)
data <- read_feather("childrawdata.feather") %>%
  mutate(participant = case_when(
    participant == "Ab07ov09_22m" ~ "Ab07ov09_32m",
    TRUE ~ participant
  ))

# Get ages
ages <- read_csv("childrenages.csv")
data <- data %>% left_join(ages, by = "participant")
data %>% select(participant,language,age) %>% distinct() # print data table
```

    ## # A tibble: 67 x 3
    ##            participant            language   age
    ##                  <chr>               <chr> <dbl>
    ##  1        Ab07ov09_32m      EnglishExposed   2.7
    ##  2     AB11Mi20_5M_10D      EnglishExposed   0.4
    ##  3  Ainsely03_27_5y_1m      EnglishExposed   5.1
    ##  4       al10pa24_4yrs      EnglishExposed   4.0
    ##  5       Allan_SE_3.5y SignLanguageExposed   3.5
    ##  6         an06he01_6m      EnglishExposed   0.5
    ##  7 Annika_3_24_10_CODA SignLanguageExposed   6.0
    ##  8      AsherCalibOnly      EnglishExposed   0.0
    ##  9  Aveline CODA 6y,1m SignLanguageExposed   5.1
    ## 10         ca05he16_6m      EnglishExposed   0.5
    ## # ... with 57 more rows
…
``` r
# Select only bad trials to use in an anti_join
trialcheck <- trialcheck %>%
  filter(lessthan25 == TRUE) %>% 
  select(participant, trial)

# Now remove all bad trials.
data <- data %>%
  anti_join(trialcheck, by = c("participant","trial"))

# Table of trials per baby
data %>% select(participant, language, trial) %>% distinct() %>% group_by(language, participant) %>% summarise(trials = n()) %>% arrange(trials)
```

    ## # A tibble: 31 x 3
    ## # Groups:   language [2]
    ##               language              participant trials
    ##                  <chr>                    <chr>  <int>
    ##  1 SignLanguageExposed   JelenaCODAhearing_4y2m      2
    ##  2 SignLanguageExposed                   sophia      9
    ##  3      EnglishExposed  Elizabeth 11_17_11_4y1m     10
    ##  4 SignLanguageExposed                JuliaCoda     10
    ##  5      EnglishExposed       na01pe06_2013_3.5y     11
    ##  6      EnglishExposed     Timothy_7_18_09_6.5y     11
    ##  7 SignLanguageExposed            Cyrus_SE_3.5y     11
    ##  8 SignLanguageExposed                    Gavin     11
    ##  9 SignLanguageExposed Isabella 5 year old Deaf     11
    ## 10 SignLanguageExposed      emmet_12_10_12_CODA     12
    ## # ... with 21 more rows
…
    ## Parsed with column specification:
    ## cols(
    ##   outlier = col_character()
    ## )

``` r
outliers
```

    ## # A tibble: 37 x 5
    ##    group participant        story trial              aoi
    ##    <chr>       <chr>        <chr> <chr>            <chr>
    ##  1     1     Ainsely Cinderella_2     9  leftchestbottom
    ##  2     1     Ainsely  KingMidas_1    15   midchestbottom
    ##  3     1     Ainsely  RedRiding_1    10            belly
    ##  4     1    al10pa24 Cinderella_1    15       belowchest
    ##  5     1      Annika ThreeBears_1     6 rightchestbottom
    ##  6     1       dylan Cinderella_2     1    midfacecenter
    ##  7     1       Isiah Cinderella_1     5         leftside
    ##  8     1       Isiah Cinderella_1     5 rightchestcenter
    ##  9     1       Isiah  KingMidas_2     4            belly
    ## 10     1       Isiah ThreeBears_1    14            belly
    ## # ... with 27 more rows
…
