…
``` r
# Select only bad trials to use in an anti_join
trialcheck <- trialcheck %>%
  filter(lessthan25 == TRUE) %>% 
  select(participant, trial)

# Now remove all bad trials.
data <- data %>%
  anti_join(trialcheck, by = c("participant","trial"))

# Table of trials per baby
data %>% select(participant, language, trial) %>% distinct() %>% group_by(language, participant) %>% summarise(trials = n()) %>% arrange(trials)
```

    ## # A tibble: 28 x 3
    ## # Groups:   language [2]
    ##               language         participant trials
    ##                  <chr>               <chr>  <int>
    ##  1      EnglishExposed            wyatt 7m      1
    ##  2      EnglishExposed       Li11hy29_5m_M      6
    ##  3      EnglishExposed     lo08jo20_6m_14d      7
    ##  4 SignLanguageExposed         Brooke CODA      7
    ##  5      EnglishExposed    WY06WE01_10M_17D      8
    ##  6      EnglishExposed     AB11Mi20_5M_10D      9
    ##  7 SignLanguageExposed GemmaF_11_4_13_CODA     10
    ##  8      EnglishExposed   DY10PE27_6m_11d_m     11
    ##  9      EnglishExposed        ma01wa22_10m     11
    ## 10      EnglishExposed    pa09ha06_9m_6d_m     11
    ## # ... with 18 more rows
…
