…
# Get ages
ages <- read_csv("childrenages.csv")
data <- data %>% left_join(ages, by = "participant")
data %>% select(participant,language,age) %>% distinct() # print data table
```

    ## # A tibble: 68 x 3
    ##            participant            language   age
    ##                  <chr>               <chr> <dbl>
    ##  1        Ab07ov09_32m      EnglishExposed   2.7
    ##  2     AB11Mi20_5M_10D      EnglishExposed   0.4
    ##  3  Ainsely03_27_5y_1m      EnglishExposed   5.1
    ##  4       al10pa24_4yrs      EnglishExposed   4.0
    ##  5       Allan_SE_3.5y SignLanguageExposed   3.5
    ##  6         an06he01_6m      EnglishExposed   0.5
    ##  7 Annika_3_24_10_CODA SignLanguageExposed   6.0
    ##  8      AsherCalibOnly      EnglishExposed   0.0
    ##  9     aubrey CODA 11m SignLanguageExposed   0.9
    ## 10  Aveline CODA 6y,1m SignLanguageExposed   5.1
    ## # ... with 58 more rows
…
